CSCI/DASC 6020: Written Assignment 03
…
  df <- data.frame(features, issue, handling)
  print(df)
}

#|label: load-datasets
x <- read.csv(file = 'game_stats_2018.csv')
y <- read.csv(file = 'game_stats_2019.csv')
gs_18 <- as.tibble(x)
gs_19 <- as.tibble(y)
(gs_18)

# A tibble: 256 × 15
    Week HomeTeam AwayTeam Total H.RushAtt H.RushYards H.PassYards H.Turnover
   <int> <chr>    <chr>    <dbl>     <int>       <int>       <int>      <int>
 1     1 PHI      ATL       44.5        27         113         132          2
 2     1 CAR      DAL       42.5        32         147         161          1
 3     1 CLE      PIT       41          38         177         197          1
 4     1 IND      CIN       47.5        22          75         319          2
 5     1 ARI      WAS       43.5        15          68         153          2
 6     1 DEN      SEA       42.5        32         146         329          3
 7     1 GNB      CHI       45          18          69         341          2
 8     1 MIA      TEN       43.5        29         120         230          2
 9     1 MIN      SFO       46.5        32         116         244          1
10     1 NOR      TAM       50          13          43         439          2
# ℹ 246 more rows
# ℹ 7 more variables: H.Score <int>, A.RushAtt <int>, A.RushYards <int>,
#   A.PassYards <int>, A.Turnover <int>, A.Score <int>, Result <int>
…
